INDEX VERSION 1.131+C:\Users\aariza\Documents\Proyectos Spring\Proyecto Prueba EndPoint\.metadata\.plugins\org.eclipse.jdt.core
2399592534.index
113220663.index
1349573843.index
2293521729.index
4032062876.index
595207841.index
3236811838.index
1147464941.index
2126996894.index
3397229992.index
2349140128.index
3216431653.index
1841591010.index
2078508428.index
3564393760.index
3058637319.index
3901362442.index
2511480766.index
1215317897.index
759962176.index
962215451.index
2240097566.index
1614593267.index
2323091537.index
613689289.index
2770125233.index
2295706271.index
1430187267.index
1406437337.index
773098636.index
3954719628.index
1393656461.index
3600484950.index
1714757169.index
2893868909.index
2461783476.index
3134577284.index
2490226402.index
1695270016.index
627776247.index
1850140302.index
4021530259.index
2374233489.index
110750417.index
134424549.index
1025274118.index
3338731857.index
2160789417.index
2175415246.index
383620230.index
285889818.index
3379859472.index
2954440107.index
2737107836.index
2686043579.index
3348973887.index
3484315616.index
4282686432.index
1293033277.index
458657987.index
1736156510.index
3970819043.index
3483809176.index
3806364509.index
2302902845.index
1182702696.index
60061218.index
3229100410.index
2729411592.index
851076878.index
3297349301.index
3236125759.index
3765275271.index
2847734772.index
1253054465.index
1775558393.index
1230207889.index
643518868.index
3628966614.index
2275379864.index
1067187454.index
849839822.index
776448306.index
536531127.index
1503109161.index
1941457709.index
4234595983.index
